[
  {
    "id": "0",
    "nom": "Tyson",
    "prenom": "Mike",
    "naissance": "1966",
    "poids": "109",
    "taille": "1,78",
    "sport": "Boxe Anglaise",
    "pointFort": "Uppercut droit",
    "image": "http://img.over-blog-kiwi.com/1/18/57/55/20180127/ob_b85fb9_4-copie.jpg",
    "prix": "559"
  },
  {
    "id": "1",
    "nom": "Le Banner",
    "prenom": "Jérôme",
    "naissance": "1972",
    "poids": "119",
    "taille": "1,9",
    "sport": "Kick-Boxing",
    "pointFort": "Coup de pied droit",
    "image": "http://fr.web.img6.acsta.net/r_1920_1080/medias/nmedia/18/63/21/56/18879113.jpg",
    "prix": "459"
  },
  {
    "id": "2",
    "nom": "McGregor",
    "prenom": "Conor",
    "naissance": "1988",
    "poids": "70",
    "taille": "1,75",
    "sport": "MMA",
    "pointFort": "Knee-kick",
    "image": "https://www.borntoworkout.com/wp-content/uploads/2019/06/Conor-McGregor-Workout.jpg",
    "prix": "439"
  },
  {
    "id": "3",
    "nom": "Joshua",
    "prenom": "Anthony",
    "naissance": "1989",
    "poids": "108",
    "taille": "1,98",
    "sport": "Boxe Anglaise",
    "pointFort": "Résistant",
    "image": "https://i.pinimg.com/474x/0b/92/58/0b925816e32842b4086440f7f57917be.jpg",
    "prix": "400"
  },
  {
    "id": "4",
    "nom": "Lee",
    "prenom": "Bruce",
    "naissance": "1940",
    "poids": "62",
    "taille": "1,72",
    "sport": "Kung Fu",
    "pointFort": "One-Inch Punch",
    "image": "https://i.pinimg.com/474x/8d/07/37/8d07378770fcff4292aa647eecdf28c4.jpg",
    "prix": "600"
  },
  {
    "id": "5",
    "nom": "Norris",
    "prenom": "Chuck",
    "naissance": "1940",
    "poids": "73",
    "taille": "1,73",
    "sport": "Karaté",
    "pointFort": "6ème sens",
    "image": "https://i.pinimg.com/474x/25/28/3d/25283d6f2079038865c1efda1c5c8716--chuck-norris-movies-karate-karate.jpg",
    "prix": "1000"
  },
  {
    "id": "6",
    "nom": "Mathers",
    "prenom": "Marshall",
    "naissance": "1972",
    "poids": "68",
    "taille": "1,73",
    "sport": "Battle rap",
    "pointFort": "Clash",
    "image": "https://i.pinimg.com/474x/48/20/0c/48200c82f51dec8ef7836cd2d7de36e9.jpg",
    "prix": "850"
  },
  {
    "id": "7",
    "nom": "Goku",
    "prenom": "Son",
    "naissance": "737",
    "poids": "62",
    "taille": "1,75",
    "sport": "Secret",
    "pointFort": "Kamehameha",
    "image": "https://pbs.twimg.com/media/DaCSte_WAAATznF.jpg",
    "prix": "1500"
  },
  {
    "id": "8",
    "nom": "Lodbrok",
    "prenom": "Ragnar",
    "naissance": "750",
    "poids": "86",
    "taille": "1,83",
    "sport": "Vikings",
    "pointFort": "Stratégie",
    "image": "https://i.pinimg.com/474x/f5/c7/7f/f5c77f9c62fef8eb1fe6f7201814877a.jpg",
    "prix": "900"
  }
]